KNN Lab
…
table(pct_comm, pct_non_comm)

##                    pct_non_comm
## pct_comm            0.360789532047017
##   0.639210467952983                 1

#3. Since there are columns that contain different metrics for the same variable (i.e. any column that ends in 'mn' is the mean of that variable, while any column that ends in 'var' is the variance of that variable), we don't need to keep both, drop all the columns that include var

tv_data.clean_var <- tv_data %>% select(-contains("var"))
(tv_data)

## # A tibble: 22,545 x 20
##    shot_length motion_distr_mn motion_distr_var frame_diff_dist_mn
##          <dbl>           <dbl>            <dbl>              <dbl>
##  1          29           3.82             1.57               13.5 
##  2          25           3.05             1.64               22.3 
##  3          82           1.60             1.51                5.86
##  4          25           4.82             2.88               41.4 
##  5          29           2.77             1.80               13.3 
##  6          25           3.68             2.15               27.2 
##  7         113           2.78             1.33               11.4 
##  8         161           1.40             0.785               6.74
##  9          81           0.984            0.964               6.86
## 10         116           1.26             1.56                6.33
## #  with 22,535 more rows, and 16 more variables: frame_diff_dist_var <dbl>,
## #   short_time_energy_mn <dbl>, short_time_energy_var <dbl>, zcr_mn <dbl>,
## #   zcr_var <dbl>, spectral_centroid_mn <dbl>, spectral_centroid_var <dbl>,
## #   spectral_roll_off_mn <dbl>, spectral_roll_off_var <dbl>,
## #   spectral_flux_mn <dbl>, spectral_flux_var <dbl>, fundamental_freq_mn <dbl>,
## #   fundamental_freq_var <dbl>, motion_dist_mn <dbl>, motion_dist_var <dbl>,
## #   label <dbl>
…
## 
## Attaching package: 'caret'

## The following object is masked from 'package:purrr':
## 
##     lift

tv_data.clean_corr = findCorrelation(commercial_correlations, cutoff=0.7) # putt any value as a "cutoff" 
tv_data.clean_corr = sort(tv_data.clean_corr)
tv_data.cleaned = tv_data.clean_var[,-c(tv_data.clean_corr)]

(tv_data.cleaned)

## # A tibble: 22,545 x 7
##    shot_length frame_diff_dist_mn short_time_energy_ zcr_mn spectral_roll_off_
##          <dbl>              <dbl>               <dbl>  <dbl>               <dbl>
##  1          29              13.5               0.0199 0.0672               6797.
##  2          25              22.3               0.0230 0.077                6610.
##  3          82               5.86              0.0259 0.0823               7488.
##  4          25              41.4               0.0144 0.0699               6606.
##  5          29              13.3               0.0115 0.101                6689.
##  6          25              27.2               0.0130 0.0681               6565.
##  7         113              11.4               0.0161 0.101                7487.
##  8         161               6.74              0.0162 0.125                7500.
##  9          81               6.86              0.0164 0.110                7360.
## 10         116               6.33              0.0155 0.123                7462.
## #  with 22,535 more rows, and 2 more variables: fundamental_freq_mn <dbl>,
## #   label <dbl>
…
